Call         __tgt_rtl_number_of_devices:        0us              8 )
Call           __tgt_rtl_is_valid_binary:        8us              1 (0x00000020bf60)
Running with:
Resource Path=[resources].
JobId=[777].
Steps=[10].
Steps size=[0.001].
Particles=[512000].
Input Current=[-4350] A.
Mode=[1].
Output path=[results_777].
No file given. Initializing random particles
Initializing with seed 0
Particles initialized
Loading resources/Bobina0m.txt with length=361
Loading resources/Bobina1m.txt with length=361
Loading resources/Bobina2m.txt with length=361
Loading resources/Bobina3m.txt with length=361
Loading resources/Bobina4m.txt with length=361
Loading resources/Bobina5m.txt with length=361
Loading resources/Bobina6m.txt with length=361
Loading resources/Bobina7m.txt with length=361
Loading resources/Bobina8m.txt with length=361
Loading resources/Bobina9m.txt with length=361
Loading resources/Bobina10m.txt with length=361
Loading resources/Bobina11m.txt with length=361
Coil data loaded
Executing simulation
Call             __tgt_rtl_init_requires:        0us              1 (             1)
Call               __tgt_rtl_init_device:        9us              0 (             0)
Call               __tgt_rtl_load_binary:     1862us 0x0000022b5ac0 (             0, 0x00000020bf60)
Call                __tgt_rtl_data_alloc:       18us 0x7fd468400000 (             0,         103968, 0x00000227a600)
Call         __tgt_rtl_data_submit_async:      620us              0 (             0, 0x7fd468400000, 0x00000227a600,         103968, 0x7ffc0234fc18)
Call                __tgt_rtl_data_alloc:        1us 0x7fd46841a000 (             0,         103968, 0x000002293cc0)
Call         __tgt_rtl_data_submit_async:       32us              0 (             0, 0x7fd46841a000, 0x000002293cc0,         103968, 0x7ffc0234fc18)
Call                __tgt_rtl_data_alloc:        0us 0x7fd468434000 (             0,          34656, 0x0000022ad340)
Call         __tgt_rtl_data_submit_async:       28us              0 (             0, 0x7fd468434000, 0x0000022ad340,          34656, 0x7ffc0234fc18)
Call                __tgt_rtl_data_alloc:       15us 0x7fd3cfc00000 (             0,       12288000, 0x7fd468bc7040)
Call         __tgt_rtl_data_submit_async:     1576us              0 (             0, 0x7fd3cfc00000, 0x7fd468bc7040,       12288000, 0x7ffc0234fc18)
Call               __tgt_rtl_synchronize:     1288us              0 (             0, 0x7ffc0234fc18)
Call __tgt_rtl_run_target_team_region_async:        5us              0 (             0, 0x0000022b9a20, 0x000002258ad0, 0x0000022cc6e0,              9,              0,              0,         512000, 0x7ffc0234fc20)
Call               __tgt_rtl_synchronize:    81521us              0 (             0, 0x7ffc0234fc20)
Call __tgt_rtl_run_target_team_region_async:        5us              0 (             0, 0x0000022b9a20, 0x000002258ad0, 0x0000022cc6e0,              9,              0,              0,         512000, 0x7ffc0234fc20)
Call               __tgt_rtl_synchronize:    81648us              0 (             0, 0x7ffc0234fc20)
Call __tgt_rtl_run_target_team_region_async:        4us              0 (             0, 0x0000022b9a20, 0x000002258ad0, 0x0000022cc6e0,              9,              0,              0,         512000, 0x7ffc0234fc20)
Call               __tgt_rtl_synchronize:    81667us              0 (             0, 0x7ffc0234fc20)
Call __tgt_rtl_run_target_team_region_async:        3us              0 (             0, 0x0000022b9a20, 0x000002258ad0, 0x0000022cc6e0,              9,              0,              0,         512000, 0x7ffc0234fc20)
Call               __tgt_rtl_synchronize:    81620us              0 (             0, 0x7ffc0234fc20)
Call __tgt_rtl_run_target_team_region_async:        3us              0 (             0, 0x0000022b9a20, 0x000002258ad0, 0x0000022cc6e0,              9,              0,              0,         512000, 0x7ffc0234fc20)
Call               __tgt_rtl_synchronize:    81631us              0 (             0, 0x7ffc0234fc20)
Call __tgt_rtl_run_target_team_region_async:        2us              0 (             0, 0x0000022b9a20, 0x000002258ad0, 0x0000022cc6e0,              9,              0,              0,         512000, 0x7ffc0234fc20)
Call               __tgt_rtl_synchronize:    81592us              0 (             0, 0x7ffc0234fc20)
Call __tgt_rtl_run_target_team_region_async:        3us              0 (             0, 0x0000022b9a20, 0x000002258ad0, 0x0000022cc6e0,              9,              0,              0,         512000, 0x7ffc0234fc20)
Call               __tgt_rtl_synchronize:    81625us              0 (             0, 0x7ffc0234fc20)
Call __tgt_rtl_run_target_team_region_async:        2us              0 (             0, 0x0000022b9a20, 0x000002258ad0, 0x0000022cc6e0,              9,              0,              0,         512000, 0x7ffc0234fc20)
Call               __tgt_rtl_synchronize:    81603us              0 (             0, 0x7ffc0234fc20)
Call __tgt_rtl_run_target_team_region_async:       12us              0 (             0, 0x0000022b9a20, 0x000002258ad0, 0x0000022cc6e0,              9,              0,              0,         512000, 0x7ffc0234fc20)
Call               __tgt_rtl_synchronize:    81622us              0 (             0, 0x7ffc0234fc20)
Call __tgt_rtl_run_target_team_region_async:        3us              0 (             0, 0x0000022b9a20, 0x000002258ad0, 0x0000022cc6e0,              9,              0,              0,         512000, 0x7ffc0234fc20)
Call               __tgt_rtl_synchronize:    81570us              0 (             0, 0x7ffc0234fc20)
Call               __tgt_rtl_data_delete:       71us              0 (             0, 0x7fd3cfc00000)
Call               __tgt_rtl_data_delete:        1us              0 (             0, 0x7fd468434000)
Call               __tgt_rtl_data_delete:        0us              0 (             0, 0x7fd46841a000)
Call               __tgt_rtl_data_delete:        0us              0 (             0, 0x7fd468400000)
DEVID: 0 SGN:2 ConstWGSize:256  args: 9 teamsXthrds:( 416X 256) reqd:(   0X   0) lds_usage:68B sgpr_count:63 vgpr_count:106 sgpr_spill_count:0 vgpr_spill_count:0 tripcount:512000 rpc:0 n:__omp_offloading_39_12d2981__Z12runParticlesPdS_S_RKNSt7__cxx1112basic_stringIcSt11char_traitsIcESaIcEEES_iidii_l458
DEVID: 0 SGN:2 ConstWGSize:256  args: 9 teamsXthrds:( 416X 256) reqd:(   0X   0) lds_usage:68B sgpr_count:63 vgpr_count:106 sgpr_spill_count:0 vgpr_spill_count:0 tripcount:512000 rpc:0 n:__omp_offloading_39_12d2981__Z12runParticlesPdS_S_RKNSt7__cxx1112basic_stringIcSt11char_traitsIcESaIcEEES_iidii_l458
DEVID: 0 SGN:2 ConstWGSize:256  args: 9 teamsXthrds:( 416X 256) reqd:(   0X   0) lds_usage:68B sgpr_count:63 vgpr_count:106 sgpr_spill_count:0 vgpr_spill_count:0 tripcount:512000 rpc:0 n:__omp_offloading_39_12d2981__Z12runParticlesPdS_S_RKNSt7__cxx1112basic_stringIcSt11char_traitsIcESaIcEEES_iidii_l458
DEVID: 0 SGN:2 ConstWGSize:256  args: 9 teamsXthrds:( 416X 256) reqd:(   0X   0) lds_usage:68B sgpr_count:63 vgpr_count:106 sgpr_spill_count:0 vgpr_spill_count:0 tripcount:512000 rpc:0 n:__omp_offloading_39_12d2981__Z12runParticlesPdS_S_RKNSt7__cxx1112basic_stringIcSt11char_traitsIcESaIcEEES_iidii_l458
DEVID: 0 SGN:2 ConstWGSize:256  args: 9 teamsXthrds:( 416X 256) reqd:(   0X   0) lds_usage:68B sgpr_count:63 vgpr_count:106 sgpr_spill_count:0 vgpr_spill_count:0 tripcount:512000 rpc:0 n:__omp_offloading_39_12d2981__Z12runParticlesPdS_S_RKNSt7__cxx1112basic_stringIcSt11char_traitsIcESaIcEEES_iidii_l458
DEVID: 0 SGN:2 ConstWGSize:256  args: 9 teamsXthrds:( 416X 256) reqd:(   0X   0) lds_usage:68B sgpr_count:63 vgpr_count:106 sgpr_spill_count:0 vgpr_spill_count:0 tripcount:512000 rpc:0 n:__omp_offloading_39_12d2981__Z12runParticlesPdS_S_RKNSt7__cxx1112basic_stringIcSt11char_traitsIcESaIcEEES_iidii_l458
DEVID: 0 SGN:2 ConstWGSize:256  args: 9 teamsXthrds:( 416X 256) reqd:(   0X   0) lds_usage:68B sgpr_count:63 vgpr_count:106 sgpr_spill_count:0 vgpr_spill_count:0 tripcount:512000 rpc:0 n:__omp_offloading_39_12d2981__Z12runParticlesPdS_S_RKNSt7__cxx1112basic_stringIcSt11char_traitsIcESaIcEEES_iidii_l458
DEVID: 0 SGN:2 ConstWGSize:256  args: 9 teamsXthrds:( 416X 256) reqd:(   0X   0) lds_usage:68B sgpr_count:63 vgpr_count:106 sgpr_spill_count:0 vgpr_spill_count:0 tripcount:512000 rpc:0 n:__omp_offloading_39_12d2981__Z12runParticlesPdS_S_RKNSt7__cxx1112basic_stringIcSt11char_traitsIcESaIcEEES_iidii_l458
DEVID: 0 SGN:2 ConstWGSize:256  args: 9 teamsXthrds:( 416X 256) reqd:(   0X   0) lds_usage:68B sgpr_count:63 vgpr_count:106 sgpr_spill_count:0 vgpr_spill_count:0 tripcount:512000 rpc:0 n:__omp_offloading_39_12d2981__Z12runParticlesPdS_S_RKNSt7__cxx1112basic_stringIcSt11char_traitsIcESaIcEEES_iidii_l458
DEVID: 0 SGN:2 ConstWGSize:256  args: 9 teamsXthrds:( 416X 256) reqd:(   0X   0) lds_usage:68B sgpr_count:63 vgpr_count:106 sgpr_spill_count:0 vgpr_spill_count:0 tripcount:512000 rpc:0 n:__omp_offloading_39_12d2981__Z12runParticlesPdS_S_RKNSt7__cxx1112basic_stringIcSt11char_traitsIcESaIcEEES_iidii_l458
Simulation finished
Total execution time=[0.82193].
Timestamp: Mon Oct 10 09:36:59 2022

Call           __tgt_rtl_is_valid_binary:        3us              1 (0x00000020bf60)
